Lecture 2: PY 0782 - Advanced Quantitative Research Methods
…
##  [9992,] 0.4787091905
##  [9993,] 0.0948562593
##  [9994,] 0.0088808221
##  [9995,] 0.1245847339
##  [9996,] 0.0827484074
##  [9997,] 0.1828967265
##  [9998,] 0.4031688428
##  [9999,] 0.1540542201
## [10000,] 0.2194379004
## 
## $R
## [1] 10000
## 
## $data
## # A tibble: 166 x 26
##     year month   day dep_time sched_dep_time dep_delay arr_time
##    <int> <int> <int>    <int>          <int>     <dbl>    <int>
##  1  2013    12    25      612            615        -3      859
##  2  2013    12    25      654            656        -2     1118
##  3  2013    12    25      656            700        -4     1026
##  4  2013    12    25      700            700         0     1017
##  5  2013    12    25      708            700         8     1117
##  6  2013    12    25      811            810         1     1027
##  7  2013    12    25      820            820         0     1301
##  8  2013    12    25      903            900         3     1215
##  9  2013    12    25     1006            740       146     1253
## 10  2013    12    25     1035           1030         5     1308
## # ... with 156 more rows, and 19 more variables: sched_arr_time <int>,
## #   arr_delay <dbl>, carrier <chr>, flight <int>, tailnum <chr>,
## #   origin <chr>, dest <chr>, air_time <dbl>, distance <dbl>, hour <dbl>,
## #   minute <dbl>, time_hour <dttm>, speed <dbl>, log_speed <dbl>,
## #   speed_cent <dbl>, speed_stand <dbl>, dep_delay_no_miss <dbl>,
## #   arr_delay_no_miss <dbl>, carrier_rec <fct>
## 
## $seed
##   [1]         403         624   -79855522  -803040953   -27922212
…
