Lecture 2: PY 0794 - Advanced Quantitative Research Methods
…
##  [9992,] 0.0148372864
##  [9993,] 0.7737216068
##  [9994,] 0.1256840094
##  [9995,] 0.1526719521
##  [9996,] 0.0394360224
##  [9997,] 0.1439194982
##  [9998,] 0.0604766426
##  [9999,] 0.2833049659
## [10000,] 0.7071737764
## 
## $R
## [1] 10000
## 
## $data
## # A tibble: 166 × 26
##     year month   day dep_time sched_dep_time dep_delay arr_time sched_arr_time
##    <int> <int> <int>    <int>          <int>     <dbl>    <int>          <int>
##  1  2013    12    25      612            615        -3      859            852
##  2  2013    12    25      654            656        -2     1118           1139
##  3  2013    12    25      656            700        -4     1026           1039
##  4  2013    12    25      700            700         0     1017           1025
##  5  2013    12    25      708            700         8     1117           1025
##  6  2013    12    25      811            810         1     1027           1039
##  7  2013    12    25      820            820         0     1301           1340
##  8  2013    12    25      903            900         3     1215           1226
##  9  2013    12    25     1006            740       146     1253           1053
## 10  2013    12    25     1035           1030         5     1308           1310
## # ℹ 156 more rows
## # ℹ 18 more variables: arr_delay <dbl>, carrier <chr>, flight <int>,
## #   tailnum <chr>, origin <chr>, dest <chr>, air_time <dbl>, distance <dbl>,
## #   hour <dbl>, minute <dbl>, time_hour <dttm>, speed <dbl>, log_speed <dbl>,
## #   speed_cent <dbl>, speed_stand <dbl[,1]>, dep_delay_no_miss <dbl>,
## #   arr_delay_no_miss <dbl>, carrier_rec <fct>
## 
## $seed
##   [1]       10403         624 -1529921617 -1075781084  -189469995   262266258
…
